Target: linkedin_sorted_preprocessed.txt
Attacker: yahoo_sorted_preprocessed.txt
5610 7717 10118 12427 14808 17097 19365 21728 24115 26407 28806 31143 33517 35864 38210 40660 43063 45375 47701 50001 
=====================
Target: linkedin_sorted_preprocessed.txt
Attacker: phpbb_sorted_preprocessed.txt
3091 4933 7410 9912 12459 14924 17466 19968 22432 24883 27410 29920 32440 35030 37503 39982 42427 44911 47461 50001 
=====================
Target: linkedin_sorted_preprocessed.txt
Attacker: zynga-com_sorted_preprocessed.txt
2423 4209 6731 9413 12010 14587 17123 19735 22276 24825 27289 29900 32340 34853 37426 39967 42438 44891 47452 50001 
=====================
Target: linkedin_sorted_preprocessed.txt
Attacker: rockyou_sorted_preprocessed.txt
835 425 592 758 894 1060 1244 1424 1593 5269 9591 13920 18368 22875 27359 31921 36521 41093 45585 50001 
=====================
Target: linkedin_sorted_preprocessed.txt
Attacker: myspace_sorted_preprocessed.txt
2244 3838 6396 8938 11564 14166 16799 19288 21898 24557 27120 29665 32263 34854 37384 39980 42510 45051 47496 50001 
=====================
Target: linkedin_sorted_preprocessed.txt
Attacker: dropbox_sorted_preprocessed.txt
3289 5381 7957 10435 12869 15328 17795 20191 22614 25061 27534 30059 32662 35095 37541 39964 42489 45051 47522 50001 
=====================
Target: linkedin_sorted_preprocessed.txt
Attacker: youku_sorted_preprocessed.txt
2552 4075 6283 8622 11118 13577 16176 18688 21348 23882 26396 29004 31661 34270 36897 39516 42186 44717 47321 50001 
=====================
Target: linkedin_sorted_preprocessed.txt
Attacker: adultfriendfinder-com-2016_sorted_preprocessed.txt
2642 4310 6777 9298 11799 14331 16945 19447 22066 24615 27193 29709 32213 34730 37308 39892 42411 44931 47508 50001 
=====================
Target: linkedin_sorted_preprocessed.txt
Attacker: chegg-com_sorted_preprocessed.txt
2780 4608 7057 9592 12214 14758 17287 19857 22399 24897 27445 29887 32470 34883 37413 39944 42479 44959 47520 50001 
=====================
Target: linkedin_sorted_preprocessed.txt
Attacker: dubsmash-com_sorted_preprocessed.txt
2605 4438 6961 9448 12036 14543 17015 19600 22058 24619 27164 29729 32231 34739 37239 39760 42246 44835 47431 50001 
=====================
Target: linkedin_sorted_preprocessed.txt
Attacker: last-fm-2016_sorted_preprocessed.txt
2677 4290 6741 9252 11779 14300 16827 19327 21832 24369 26864 29422 32005 34490 37080 39621 42145 44748 47396 50001 
=====================
