Target: rockyou_sorted_preprocessed.txt
Attacker: yahoo_sorted_preprocessed.txt
3683 5268 7811 10319 12683 15185 17709 20163 22638 25093 27589 30128 32713 35108 37568 40025 42581 45081 47510 50001 
=====================
Target: rockyou_sorted_preprocessed.txt
Attacker: phpbb_sorted_preprocessed.txt
3561 5118 7482 10063 12560 15058 17591 20143 22627 25084 27532 30055 32623 35169 37664 40144 42507 45018 47517 50001 
=====================
Target: rockyou_sorted_preprocessed.txt
Attacker: linkedin_sorted_preprocessed.txt
4246 6359 9179 12003 14578 17080 19535 21991 24362 26733 29094 31370 33793 36164 38542 40867 43157 45479 47773 50001 
=====================
Target: rockyou_sorted_preprocessed.txt
Attacker: zynga-com_sorted_preprocessed.txt
4065 6149 9053 11796 14360 16845 19272 21698 24085 26461 28826 31097 33480 35810 38209 40493 42872 45163 47585 50001 
=====================
Target: rockyou_sorted_preprocessed.txt
Attacker: myspace_sorted_preprocessed.txt
4049 6289 9263 12067 14738 17258 19772 22202 24514 26898 29278 31610 33906 36220 38390 40690 43092 45389 47692 50001 
=====================
Target: rockyou_sorted_preprocessed.txt
Attacker: dropbox_sorted_preprocessed.txt
3862 5664 8226 10851 13392 15892 18382 20829 23410 25748 28192 30591 33005 35383 37870 40266 42701 45213 47663 50001 
=====================
Target: rockyou_sorted_preprocessed.txt
Attacker: youku_sorted_preprocessed.txt
3529 4876 7157 9530 11943 14450 16873 19312 21804 24333 26913 29451 32057 34540 37107 39683 42264 44816 47423 50001 
=====================
Target: rockyou_sorted_preprocessed.txt
Attacker: adultfriendfinder-com-2016_sorted_preprocessed.txt
3755 5377 7811 10289 12739 15219 17699 20108 22565 25045 27501 30043 32604 35095 37624 40152 42591 45044 47538 50001 
=====================
Target: rockyou_sorted_preprocessed.txt
Attacker: chegg-com_sorted_preprocessed.txt
3996 5836 8460 10971 13519 15947 18297 20774 23183 25664 28084 30517 32978 35492 37915 40298 42660 45089 47563 50001 
=====================
Target: rockyou_sorted_preprocessed.txt
Attacker: dubsmash-com_sorted_preprocessed.txt
3999 5907 8501 11091 13595 16064 18584 20996 23474 25980 28355 30875 33216 35644 38025 40469 42810 45192 47647 50001 
=====================
Target: rockyou_sorted_preprocessed.txt
Attacker: last-fm-2016_sorted_preprocessed.txt
4025 5901 8698 11398 13999 16542 19046 21468 23845 26293 28608 30996 33430 35848 38241 40577 42876 45286 47631 50001 
=====================
