Target: zynga-com_sorted_preprocessed.txt
Attacker: yahoo_sorted_preprocessed.txt
11977 14755 18063 20669 22833 24860 26754 28588 30390 32164 33898 35665 37539 39264 41089 42885 44634 46400 48187 50001 
=====================
Target: zynga-com_sorted_preprocessed.txt
Attacker: phpbb_sorted_preprocessed.txt
8705 9085 11425 13791 16101 18392 20751 23001 25350 27501 29754 32062 34328 36579 38795 41119 43351 45511 47785 50001 
=====================
Target: zynga-com_sorted_preprocessed.txt
Attacker: linkedin_sorted_preprocessed.txt
11877 15531 20441 24612 28032 30787 32990 34837 36363 37778 39069 40282 41514 42721 43948 45141 46328 47559 48757 50001 
=====================
Target: zynga-com_sorted_preprocessed.txt
Attacker: rockyou_sorted_preprocessed.txt
6762 6128 7623 9339 11118 12913 14720 16524 18295 22063 25294 28290 31119 33811 36463 39144 41872 44637 47317 50001 
=====================
Target: zynga-com_sorted_preprocessed.txt
Attacker: myspace_sorted_preprocessed.txt
15072 19166 23098 26021 28317 30258 31892 33425 34939 36349 37776 39086 40393 41789 43147 44513 45928 47295 48702 50001 
=====================
Target: zynga-com_sorted_preprocessed.txt
Attacker: dropbox_sorted_preprocessed.txt
14908 18070 21159 23537 25469 27225 28848 30516 32112 33758 35357 37010 38651 40267 41872 43476 45122 46745 48379 50001 
=====================
Target: zynga-com_sorted_preprocessed.txt
Attacker: youku_sorted_preprocessed.txt
9926 11179 13788 16147 18437 20646 22808 24899 27031 29114 31228 33288 35321 37368 39497 41568 43701 45784 47896 50001 
=====================
Target: zynga-com_sorted_preprocessed.txt
Attacker: adultfriendfinder-com-2016_sorted_preprocessed.txt
11041 13806 17253 20063 22433 24494 26474 28265 30125 31914 33775 35554 37367 39147 40918 42671 44429 46292 48125 50001 
=====================
Target: zynga-com_sorted_preprocessed.txt
Attacker: chegg-com_sorted_preprocessed.txt
12930 16613 20872 24328 27084 29269 31113 32759 34296 35793 37218 38702 40082 41530 42917 44346 45734 47183 48573 50001 
=====================
Target: zynga-com_sorted_preprocessed.txt
Attacker: dubsmash-com_sorted_preprocessed.txt
15821 19429 22718 25184 27137 28854 30484 32025 33491 34904 36430 38034 39553 41053 42581 44067 45527 46977 48471 50001 
=====================
Target: zynga-com_sorted_preprocessed.txt
Attacker: last-fm-2016_sorted_preprocessed.txt
11427 14867 19399 23219 26231 28543 30534 32251 33936 35493 36946 38484 39980 41395 42823 44237 45663 47131 48635 50001 
=====================
