Target: dubsmash-com_sorted_preprocessed.txt
Attacker: yahoo_sorted_preprocessed.txt
18399 24114 26557 28200 29727 31121 32426 33722 35117 36515 37865 39244 40635 41953 43340 44658 45963 47253 48659 50001 
=====================
Target: dubsmash-com_sorted_preprocessed.txt
Attacker: phpbb_sorted_preprocessed.txt
14139 17310 19320 21171 22932 24714 26614 28450 30325 32076 33887 35713 37443 39229 41033 42832 44675 46412 48188 50001 
=====================
Target: dubsmash-com_sorted_preprocessed.txt
Attacker: linkedin_sorted_preprocessed.txt
22452 28927 32355 34577 36053 37261 38301 39301 40188 41058 41941 42850 43717 44576 45372 46282 47204 48140 49057 50001 
=====================
Target: dubsmash-com_sorted_preprocessed.txt
Attacker: zynga-com_sorted_preprocessed.txt
28644 32706 34454 35636 36740 37669 38565 39492 40354 41183 42038 42951 43873 44737 45617 46481 47327 48208 49124 50001 
=====================
Target: dubsmash-com_sorted_preprocessed.txt
Attacker: rockyou_sorted_preprocessed.txt
21266 26729 29366 31107 32602 33849 35060 36239 37356 38497 39667 40799 41932 43092 44191 45365 46468 47651 48830 50001 
=====================
Target: dubsmash-com_sorted_preprocessed.txt
Attacker: myspace_sorted_preprocessed.txt
27546 31061 32864 34154 35264 36319 37336 38331 39352 40218 41186 42153 43175 44128 45094 46065 47029 48042 49019 50001 
=====================
Target: dubsmash-com_sorted_preprocessed.txt
Attacker: dropbox_sorted_preprocessed.txt
25028 27962 29645 30972 32221 33446 34688 35839 37056 38281 39439 40672 41878 43041 44190 45367 46511 47715 48846 50001 
=====================
Target: dubsmash-com_sorted_preprocessed.txt
Attacker: youku_sorted_preprocessed.txt
17895 21373 23386 25114 26686 28221 29810 31356 32871 34461 36096 37644 39078 40609 42250 43803 45361 46891 48448 50001 
=====================
Target: dubsmash-com_sorted_preprocessed.txt
Attacker: adultfriendfinder-com-2016_sorted_preprocessed.txt
21347 24949 27297 29040 30450 31794 33113 34419 35673 36955 38233 39566 40879 42200 43540 44786 46021 47333 48677 50001 
=====================
Target: dubsmash-com_sorted_preprocessed.txt
Attacker: chegg-com_sorted_preprocessed.txt
20926 27410 30397 32321 33910 35236 36352 37470 38590 39595 40599 41614 42676 43706 44780 45842 46879 47884 48942 50001 
=====================
Target: dubsmash-com_sorted_preprocessed.txt
Attacker: last-fm-2016_sorted_preprocessed.txt
22145 27826 30701 32625 34038 35334 36456 37531 38598 39664 40693 41731 42741 43781 44827 45840 46873 47866 48945 50001 
=====================
