Target: have-i-been-pwned-v2_sorted_preprocessed.txt
Attacker: yahoo_sorted_preprocessed.txt
2975 5437 7923 10459 12959 15335 17754 20195 22664 25110 27671 30115 32617 35082 37646 40146 42572 45049 47521 50001 
=====================
Target: have-i-been-pwned-v2_sorted_preprocessed.txt
Attacker: phpbb_sorted_preprocessed.txt
2541 5057 7547 10094 12574 15111 17598 20062 22579 25134 27577 30058 32591 35055 37538 40023 42508 45052 47493 50001 
=====================
Target: have-i-been-pwned-v2_sorted_preprocessed.txt
Attacker: linkedin_sorted_preprocessed.txt
7278 9796 12136 14394 16560 18821 21056 23259 25541 27762 30005 32264 34460 36661 38913 41178 43418 45573 47746 50001 
=====================
Target: have-i-been-pwned-v2_sorted_preprocessed.txt
Attacker: zynga-com_sorted_preprocessed.txt
3094 5697 8162 10632 13134 15566 18114 20591 23083 25635 28015 30433 32841 35371 37843 40289 42729 45213 47550 50001 
=====================
Target: have-i-been-pwned-v2_sorted_preprocessed.txt
Attacker: rockyou_sorted_preprocessed.txt
3616 6044 8513 10976 13406 15838 18278 20708 23131 25594 28013 30395 32959 35358 37753 40104 42614 45091 47564 50001 
=====================
Target: have-i-been-pwned-v2_sorted_preprocessed.txt
Attacker: myspace_sorted_preprocessed.txt
3962 6483 8959 11411 13769 16174 18509 20865 23239 25608 28034 30443 32873 35282 37738 40242 42706 45129 47561 50001 
=====================
Target: have-i-been-pwned-v2_sorted_preprocessed.txt
Attacker: dropbox_sorted_preprocessed.txt
2992 5509 7957 10506 12947 15504 17959 20457 22831 25349 27786 30273 32739 35269 37703 40144 42641 45036 47440 50001 
=====================
Target: have-i-been-pwned-v2_sorted_preprocessed.txt
Attacker: youku_sorted_preprocessed.txt
3229 5807 8279 10834 13238 15680 18014 20454 22945 25476 27859 30266 32748 35229 37718 40230 42670 45050 47577 50001 
=====================
Target: have-i-been-pwned-v2_sorted_preprocessed.txt
Attacker: adultfriendfinder-com-2016_sorted_preprocessed.txt
2600 5116 7585 10138 12514 15033 17522 20014 22482 24955 27413 29964 32421 35031 37559 40099 42599 45009 47511 50001 
=====================
Target: have-i-been-pwned-v2_sorted_preprocessed.txt
Attacker: chegg-com_sorted_preprocessed.txt
2931 5399 7894 10355 12877 15267 17737 20186 22697 25157 27657 30157 32637 35056 37456 39945 42445 44969 47493 50001 
=====================
Target: have-i-been-pwned-v2_sorted_preprocessed.txt
Attacker: dubsmash-com_sorted_preprocessed.txt
2874 5382 7892 10338 12825 15329 17832 20303 22857 25403 27788 30261 32672 35143 37570 40050 42485 44979 47493 50001 
=====================
Target: have-i-been-pwned-v2_sorted_preprocessed.txt
Attacker: last-fm-2016_sorted_preprocessed.txt
3959 6393 8810 11237 13625 16087 18464 20957 23401 25865 28224 30673 33007 35475 37932 40324 42672 45137 47562 50001 
=====================
