Target: rockyou_sorted_preprocessed_160.txt
Attacker: phpbb_sorted_preprocessed.txt
303 607 905 1200 1531 1848 2157 2458 2788 3097 3428 3745 4045 4318 4643 4947 5278 5610 5919 6213 6503 6790 7113 7435 7764 8071 8384 8696 9017 9313 9596 9918 10210 10538 10867 11210 11494 11808 12126 12443 12757 13068 13382 13722 14016 14343 14663 14994 15300 15596 15894 16223 16560 16875 17208 17496 17827 18187 18525 18855 19156 19464 19779 20100 20402 20715 21007 21319 21629 21927 22210 22535 22851 23164 23490 23800 24143 24473 24827 25108 25418 25728 26043 26336 26633 26932 27243 27550 27867 28156 28447 28739 29080 29380 29688 30002 30316 30632 30974 31291 31604 31898 32175 32487 32814 33133 33464 33761 34071 34406 34696 34983 35293 35628 35931 36238 36551 36871 37178 37466 37783 38104 38433 38740 39040 39364 39660 39991 40334 40626 40947 41279 41576 41894 42251 42554 42855 43184 43506 43795 44086 44403 44670 44994 45316 45612 45928 46254 46589 46896 47208 47535 47844 48115 48429 48737 49065 49368 49684 50001 
=====================
