Target: myspace_sorted_preprocessed.txt
Attacker: phpbb_sorted_preprocessed.txt
4667 7390 9766 12181 14577 16921 19279 21669 23979 26369 28733 31157 33479 35835 38112 40416 42815 45237 47608 50001 
=====================
Target: myspace_sorted_preprocessed.txt
Attacker: dropbox_sorted_preprocessed.txt
8375 11906 14631 17050 19318 21472 23518 25612 27648 29706 31636 33643 35714 37772 39832 41872 43828 45851 47973 50001 
=====================
Target: myspace_sorted_preprocessed.txt
Attacker: chegg-com_sorted_preprocessed.txt
5417 9102 12366 15399 18071 20641 22962 25197 27476 29632 31732 33849 35944 37875 39886 41898 43913 45871 47920 50001 
=====================
Target: myspace_sorted_preprocessed.txt
Attacker: rockyou_sorted_preprocessed.txt
2470 3203 3911 4546 5211 5856 6464 7111 7756 8379 9058 9732 10383 11008 11659 12341 12967 13616 14333 50001 
=====================
Target: myspace_sorted_preprocessed.txt
Attacker: zynga-com_sorted_preprocessed.txt
8557 12150 14936 17338 19590 21805 23885 25972 28064 30148 32185 34153 36130 38097 40105 42008 44042 46094 48086 50001 
=====================
Target: myspace_sorted_preprocessed.txt
Attacker: dubsmash-com_sorted_preprocessed.txt
8644 12207 14957 17370 19626 21799 23925 25948 27966 29989 31968 34035 35953 37931 39939 41933 43976 45986 47957 50001 
=====================
Target: myspace_sorted_preprocessed.txt
Attacker: adultfriendfinder-com-2016_sorted_preprocessed.txt
5099 9128 12528 15488 18102 20466 22660 24908 27052 29154 31239 33393 35510 37575 39690 41748 43823 45886 47934 50001 
=====================
Target: myspace_sorted_preprocessed.txt
Attacker: youku_sorted_preprocessed.txt
5046 8113 10586 12892 15252 17558 19943 22279 24553 26839 29081 31346 33689 35985 38268 40606 42972 45275 47661 50001 
=====================
Target: myspace_sorted_preprocessed.txt
Attacker: yahoo_sorted_preprocessed.txt
5530 9421 12405 15029 17408 19702 21906 24160 26308 28518 30640 32799 34917 37030 39190 41407 43509 45717 47843 50001 
=====================
Target: myspace_sorted_preprocessed.txt
Attacker: last-fm-2016_sorted_preprocessed.txt
5114 8463 11591 14661 17577 20269 22732 25055 27430 29621 31668 33742 35828 37845 39918 41936 43982 45994 48023 50001 
=====================
Target: myspace_sorted_preprocessed.txt
Attacker: linkedin_sorted_preprocessed.txt
5057 8238 11197 14142 16884 19694 22253 24697 27144 29466 31678 33833 35924 37963 39999 41983 44014 46035 48039 50001 
=====================
