Target: rockyou_sorted_preprocessed.txt
Attacker: phpbb_sorted_preprocessed.txt
2363 4919 7439 9824 12386 14887 17402 20015 22473 24997 27570 30068 32560 35064 37546 40105 42576 45070 47525 50001 
=====================
Target: rockyou_sorted_preprocessed.txt
Attacker: myspace_sorted_preprocessed.txt
1812 3892 6304 8845 11332 13882 16480 19149 21638 24241 26833 29446 32088 34667 37206 39799 42284 44826 47401 50001 
=====================
Target: rockyou_sorted_preprocessed.txt
Attacker: dropbox_sorted_preprocessed.txt
2083 4408 6989 9590 12044 14629 17182 19761 22217 24759 27266 29849 32356 34828 37327 39866 42354 44853 47377 50001 
=====================
Target: rockyou_sorted_preprocessed.txt
Attacker: chegg-com_sorted_preprocessed.txt
2025 4316 6848 9360 11906 14405 16973 19495 22036 24530 27111 29684 32213 34752 37305 39838 42362 44916 47450 50001 
=====================
Target: rockyou_sorted_preprocessed.txt
Attacker: zynga-com_sorted_preprocessed.txt
1859 4041 6468 8985 11564 14143 16676 19262 21766 24333 26929 29557 32152 34745 37351 39881 42427 44940 47488 50001 
=====================
Target: rockyou_sorted_preprocessed.txt
Attacker: dubsmash-com_sorted_preprocessed.txt
2092 4588 7179 9621 12209 14774 17239 19734 22272 24862 27341 29905 32439 34889 37473 40017 42473 44959 47481 50001 
=====================
Target: rockyou_sorted_preprocessed.txt
Attacker: adultfriendfinder-com-2016_sorted_preprocessed.txt
1959 4314 6800 9375 11960 14353 16830 19345 21887 24447 26935 29516 32072 34567 37184 39851 42343 44860 47433 50001 
=====================
Target: rockyou_sorted_preprocessed.txt
Attacker: youku_sorted_preprocessed.txt
2020 4272 6697 9169 11642 14107 16651 19146 21755 24406 26917 29523 32085 34578 37087 39637 42145 44786 47409 50001 
=====================
Target: rockyou_sorted_preprocessed.txt
Attacker: yahoo_sorted_preprocessed.txt
2074 4528 7072 9538 12083 14543 17029 19518 22048 24663 27177 29698 32266 34787 37290 39883 42402 44968 47435 50001 
=====================
Target: rockyou_sorted_preprocessed.txt
Attacker: last-fm-2016_sorted_preprocessed.txt
1899 3995 6178 8509 11029 13555 16179 18767 21317 23963 26553 29097 31787 34420 36985 39570 42169 44791 47322 50001 
=====================
Target: rockyou_sorted_preprocessed.txt
Attacker: linkedin_sorted_preprocessed.txt
1951 4047 6236 8496 10924 13370 15967 18662 21299 23953 26561 29202 31765 34406 36993 39479 42144 44771 47371 50001 
=====================
